module github.com/froghub-io/filecoin-sealer-recover

go 1.15

replace github.com/filecoin-project/filecoin-ffi => ./extern/lotus/extern/filecoin-ffi

replace github.com/filecoin-project/lotus => ./extern/lotus

require (
	github.com/docker/go-units v0.4.0
	github.com/filecoin-project/go-address v0.0.6
	github.com/filecoin-project/go-state-types v0.1.1-0.20210810190654-139e0e79e69e
	github.com/filecoin-project/lotus v1.1.2
	github.com/filecoin-project/specs-storage v0.1.1-0.20201105051918-5188d9774506
	github.com/mitchellh/go-homedir v1.1.0
	github.com/sirupsen/logrus v1.8.1
	github.com/urfave/cli/v2 v2.3.0
	golang.org/x/xerrors v0.0.0-20200804184101-5ec99f83aff1
)
